generated/ALU.vcd
$date
2023-11-09T08:26+0000
$end
$version
0.2
$end
$comment

$end
$timescale 1ns  $end
$scope module ALU $end
 $var wire 64 ! _GEN_16 $end
 $var wire 32 " _GEN_2 $end
 $var wire 64 # _GEN_10 $end
 $var wire 1 $ _T $end
 $var wire 1 % _GEN_5 $end
 $var wire 1 & _GEN_13 $end
 $var wire 64 ' _GEN_8 $end
 $var wire 1 ( io_compResult $end
 $var wire 4 ) io_sel $end
 $var wire 64 * _GEN_12 $end
 $var wire 1 + _GEN_15 $end
 $var wire 1 , _GEN_7 $end
 $var wire 32 - io_operand2 $end
 $var wire 32 . _GEN_18 $end
 $var wire 1 / _GEN_1 $end
 $var wire 32 0 _GEN_4 $end
 $var wire 1 1 clock $end
 $var wire 32 2 io_result $end
 $var wire 1 3 _GEN_11 $end
 $var wire 32 4 _GEN_6 $end
 $var wire 64 5 _GEN_14 $end
 $var wire 32 6 _GEN_0 $end
 $var wire 1 7 _GEN_9 $end
 $var wire 32 8 io_operand1 $end
 $var wire 1 9 reset $end
 $var wire 1 : _GEN_3 $end
$upscope $end
$enddefinitions $end
$dumpvars
0%
0&
b00000000000000000000000000000000 6
b00000000000000000000000000000000 .
b0000000000000000000000000000000000000000000000000000000000000000 5
b0000 )
b0000000000000000000000000000000000000000000000000000000000000000 '
b0000000000000000000000000000000000000000000000000000000000000000 !
0/
b00000000000000000000000000000000 0
b00000000000000000000000000000000 "
0(
07
b00000000000000000000000000000000 8
01
b0000000000000000000000000000000000000000000000000000000000000000 *
b0000000000000000000000000000000000000000000000000000000000000000 #
09
b00000000000000000000000000000000 2
0+
0:
b00000000000000000000000000000000 -
0,
0$
03
b00000000000000000000000000000000 4
$end
#0
19
#1
11
#6
01
#11
11
#16
01
#21
11
#26
01
#31
11
#36
01
#41
11
#46
b0000000000000000000000000000000000000000000000000000000000000110 !
b00000000000000000000000000000100 -
01
b00000000000000000000000000000110 .
b00000000000000000000000000000010 8
b00000000000000000000000000000110 2
09
1$
b0001 )
#51
11
#56
b1111111111111111111111111111111111111111111111111111111111111110 !
01
b11111111111111111111111111111110 .
b1111111111111111111111111111111111111111111111111111111111111110 5
b11111111111111111111111111111110 2
0$
b0010 )
#61
11
#66
b0000000000000000000000000000000000000000000000000000000000000011 !
b00000000000000000000000000000011 -
01
b00000000000000000000000000000011 .
b00000000000000000000000000000001 8
b0000000000000000000000000000000000000000000000000000000000000011 5
b00000000000000000000000000000011 2
b0000000000000000000000000000000000000000000000000000000000000011 *
b0011 )
#71
11
#76
b0000000000000000000000000000000000000000000000000000000000000001 !
01
b00000000000000000000000000000001 .
b0000000000000000000000000000000000000000000000000000000000000001 #
b0000000000000000000000000000000000000000000000000000000000000001 5
b00000000000000000000000000000001 2
b0000000000000000000000000000000000000000000000000000000000000001 *
b0100 )
#81
11
#86
b0000000000000000000000000000000000000000000000000000000000010100 !
b00000000000000000000000000000100 -
01
b00000000000000000000000000010100 .
b00000000000000000000000000000101 8
b0000000000000000000000000000000000000000000000000000000000010100 #
b0000000000000000000000000000000000000000000000000000000000010100 5
b00000000000000000000000000010100 2
b0000000000000000000000000000000000000000000000000000000000010100 *
b0000000000000000000000000000000000000000000000000000000000010100 '
b0101 )
#91
11
#96
b0000000000000000000000000000000000000000000000000000000000000101 !
b00000000000000000000000000000101 4
01
b00000000000000000000000000000101 .
b0000000000000000000000000000000000000000000000000000000000000101 #
b0000000000000000000000000000000000000000000000000000000000000101 5
b00000000000000000000000000000101 2
b0000000000000000000000000000000000000000000000000000000000000101 *
b0000000000000000000000000000000000000000000000000000000000000101 '
b0110 )
#101
11
#106
b0000000000000000000000000000000000000000000000000000000000000100 !
b00000000000000000000000000000100 0
b00000000000000000000000000000100 4
01
b00000000000000000000000000000100 .
b0000000000000000000000000000000000000000000000000000000000000100 #
b0000000000000000000000000000000000000000000000000000000000000100 5
b00000000000000000000000000000100 2
b0000000000000000000000000000000000000000000000000000000000000100 *
b0000000000000000000000000000000000000000000000000000000000000100 '
b0111 )
#111
11
#116
13
b00000000000000000000000000010100 -
1%
b00000000000000000000000000000001 4
b00000000000000000000000000000001 .
1&
b0000000000000000000000000000000000000000000000000000000000000001 5
b0000000000000000000000000000000000000000000000000000000000000001 '
1(
17
b1000 )
b0000000000000000000000000000000000000000000000000000000000000001 !
b00000000000000000000000000000001 0
b00000000000000000000000000000001 "
01
b00000000000000000000000000010011 8
b0000000000000000000000000000000000000000000000000000000000000001 #
b00000000000000000000000000000001 2
b0000000000000000000000000000000000000000000000000000000000000001 *
1+
1:
1,
#121
11
#126
b11111111111111111111111111111111 4
b11111111111111111111111111111111 .
b1111111111111111111111111111111111111111111111111111111111111111 5
b1111111111111111111111111111111111111111111111111111111111111111 '
b11111111111111111111111111111111 6
1/
b1001 )
b1111111111111111111111111111111111111111111111111111111111111111 !
b11111111111111111111111111111111 0
b11111111111111111111111111111111 "
01
b1111111111111111111111111111111111111111111111111111111111111111 #
b11111111111111111111111111111111 2
b1111111111111111111111111111111111111111111111111111111111111111 *
