generated/ALU.vcd
$date
2023-10-25T14:47+0000
$end
$version
0.2
$end
$comment

$end
$timescale 1ns  $end
$scope module ALU $end
 $var wire 64 ! _GEN_2 $end
 $var wire 1 " _T $end
 $var wire 64 # _GEN_5 $end
 $var wire 1 $ io_compResult $end
 $var wire 3 % io_sel $end
 $var wire 32 & _GEN_7 $end
 $var wire 32 ' io_operand2 $end
 $var wire 32 ( _GEN_1 $end
 $var wire 64 ) _GEN_4 $end
 $var wire 1 * clock $end
 $var wire 32 + io_result $end
 $var wire 64 , _GEN_6 $end
 $var wire 32 - _GEN_0 $end
 $var wire 32 . reg $end
 $var wire 32 / io_operand1 $end
 $var wire 1 0 reset $end
 $var wire 64 1 _GEN_3 $end
$upscope $end
$enddefinitions $end
$dumpvars
b00000000000000000000000000000000 &
b00000000000000000000000000000000 '
b00000000000000000000000000000000 .
b00000000000000000000000000000000 (
b00000000000000000000000000000000 /
b000 %
b0000000000000000000000000000000000000000000000000000000000000000 !
00
b0000000000000000000000000000000000000000000000000000000000000000 )
0"
b0000000000000000000000000000000000000000000000000000000000000000 1
0*
b0000000000000000000000000000000000000000000000000000000000000000 #
b00000000000000000000000000000000 +
b00000000000000000000000000000000 -
0$
b0000000000000000000000000000000000000000000000000000000000000000 ,
$end
#0
10
1$
#1
1*
#6
0*
#11
1*
#16
0*
#21
1*
#26
0*
#31
1*
#36
0*
#41
1*
#46
00
b001 %
1"
b00000000000000000000000000000110 &
0*
b00000000000000000000000000000100 '
b00000000000000000000000000000010 /
b0000000000000000000000000000000000000000000000000000000000000110 ,
#51
b0000000000000000000000000000000000000000000000000000000000000110 !
b00000000000000000000000000000110 -
b0000000000000000000000000000000000000000000000000000000000000110 1
b00000000000000000000000000000110 .
b0000000000000000000000000000000000000000000000000000000000000110 #
1*
0$
b00000000000000000000000000000110 +
b00000000000000000000000000000110 (
b0000000000000000000000000000000000000000000000000000000000000110 )
#56
b010 %
0"
b11111111111111111111111111111110 &
b1111111111111111111111111111111111111111111111111111111111111110 #
0*
b1111111111111111111111111111111111111111111111111111111111111110 ,
#61
b1111111111111111111111111111111111111111111111111111111111111110 !
b11111111111111111111111111111110 -
b1111111111111111111111111111111111111111111111111111111111111110 1
b11111111111111111111111111111110 .
1*
b11111111111111111111111111111110 +
b11111111111111111111111111111110 (
b1111111111111111111111111111111111111111111111111111111111111110 )
#66
b011 %
b00000000000000000000000000000011 &
b0000000000000000000000000000000000000000000000000000000000000011 #
0*
b00000000000000000000000000000011 '
b00000000000000000000000000000001 /
b0000000000000000000000000000000000000000000000000000000000000011 ,
b0000000000000000000000000000000000000000000000000000000000000011 )
#71
b0000000000000000000000000000000000000000000000000000000000000011 !
b00000000000000000000000000000011 -
b0000000000000000000000000000000000000000000000000000000000000011 1
b00000000000000000000000000000011 .
1*
b00000000000000000000000000000011 +
b00000000000000000000000000000011 (
#76
b100 %
b0000000000000000000000000000000000000000000000000000000000000001 1
b00000000000000000000000000000001 &
b0000000000000000000000000000000000000000000000000000000000000001 #
0*
b0000000000000000000000000000000000000000000000000000000000000001 ,
b0000000000000000000000000000000000000000000000000000000000000001 )
#81
b0000000000000000000000000000000000000000000000000000000000000001 !
b00000000000000000000000000000001 -
b00000000000000000000000000000001 .
1*
b00000000000000000000000000000001 +
b00000000000000000000000000000001 (
#86
b0000000000000000000000000000000000000000000000000000000000010100 !
b101 %
b0000000000000000000000000000000000000000000000000000000000010100 1
b00000000000000000000000000010100 &
b0000000000000000000000000000000000000000000000000000000000010100 #
0*
b00000000000000000000000000000100 '
b00000000000000000000000000000101 /
b0000000000000000000000000000000000000000000000000000000000010100 ,
b0000000000000000000000000000000000000000000000000000000000010100 )
#91
b00000000000000000000000000010100 -
b00000000000000000000000000010100 .
1*
b00000000000000000000000000010100 +
b00000000000000000000000000010100 (
#96
b0000000000000000000000000000000000000000000000000000000000000101 !
b110 %
b0000000000000000000000000000000000000000000000000000000000000101 1
b00000000000000000000000000000101 &
b0000000000000000000000000000000000000000000000000000000000000101 #
0*
b00000000000000000000000000000101 (
b0000000000000000000000000000000000000000000000000000000000000101 ,
b0000000000000000000000000000000000000000000000000000000000000101 )
#101
b00000000000000000000000000000101 -
b00000000000000000000000000000101 .
1*
b00000000000000000000000000000101 +
#106
b0000000000000000000000000000000000000000000000000000000000000100 !
b00000000000000000000000000000100 -
b111 %
b0000000000000000000000000000000000000000000000000000000000000100 1
b00000000000000000000000000000100 &
b0000000000000000000000000000000000000000000000000000000000000100 #
0*
b00000000000000000000000000000100 (
b0000000000000000000000000000000000000000000000000000000000000100 ,
b0000000000000000000000000000000000000000000000000000000000000100 )
#111
b00000000000000000000000000000100 .
1*
b00000000000000000000000000000100 +
