generated/ALU.vcd
$date
2023-10-11T11:38+0000
$end
$version
0.2
$end
$comment

$end
$timescale 1ns  $end
$scope module ALU $end
 $var wire 32 ! _GEN_2 $end
 $var wire 1 " _T $end
 $var wire 1 # io_compResult $end
 $var wire 3 $ io_sel $end
 $var wire 32 % io_operand2 $end
 $var wire 32 & _GEN_1 $end
 $var wire 1 ' clock $end
 $var wire 32 ( io_result $end
 $var wire 32 ) _GEN_0 $end
 $var wire 32 * reg $end
 $var wire 32 + io_operand1 $end
 $var wire 1 , reset $end
 $var wire 32 - _GEN_3 $end
$upscope $end
$enddefinitions $end
$dumpvars
b00000000000000000000000000000000 &
0"
b00000000000000000000000000000000 *
0#
b00000000000000000000000000000000 +
0'
b000 $
b00000000000000000000000000000000 (
b00000000000000000000000000000000 !
b00000000000000000000000000000000 -
0,
b00000000000000000000000000000000 %
b00000000000000000000000000000000 )
$end
#0
1#
1,
#1
1'
#6
0'
#11
1'
#16
0'
#21
1'
#26
0'
#31
1'
#36
0'
#41
1'
#46
b00000000000000000000000000000110 -
b00000000000000000000000000000100 %
1"
0'
b001 $
b00000000000000000000000000000010 +
0,
#51
b00000000000000000000000000000110 !
b00000000000000000000000000000110 &
0#
b00000000000000000000000000000110 *
1'
b00000000000000000000000000000110 (
b00000000000000000000000000000110 )
#56
b11111111111111111111111111111110 !
b11111111111111111111111111111110 -
0"
0'
b010 $
#61
b11111111111111111111111111111110 &
b11111111111111111111111111111110 *
1'
b11111111111111111111111111111110 (
b11111111111111111111111111111110 )
#66
b00000000000000000000000000000011 !
b00000000000000000000000000000011 -
b00000000000000000000000000000011 %
b00000000000000000000000000000011 &
0'
b011 $
b00000000000000000000000000000001 +
#71
b00000000000000000000000000000011 *
1'
b00000000000000000000000000000011 (
b00000000000000000000000000000011 )
#76
b00000000000000000000000000000001 !
b00000000000000000000000000000001 -
b00000000000000000000000000000001 &
0'
b100 $
b00000000000000000000000000000001 )
#81
b00000000000000000000000000000001 *
1'
b00000000000000000000000000000001 (
