generated/CPUTop.vcd
$date
2023-11-01T13:47+0000
$end
$version
0.2
$end
$comment

$end
$timescale 1ns  $end
$scope module CPUTop $end
 $var wire 32 & io_testerDataMemDataRead $end
 $var wire 1 7 _T $end
 $var wire 1 = io_testerDataMemWriteEnable $end
 $var wire 1 B registerFile $end
 $var wire 1 h io_testerProgMemEnable $end
 $var wire 1 "$ io_testerProgMemWriteEnable $end
 $var wire 32 "& io_testerProgMemDataWrite $end
 $var wire 1 ") programMemory $end
 $var wire 1 "+ programCounter $end
 $var wire 32 "0 io_testerDataMemDataWrite $end
 $var wire 1 "= alu $end
 $var wire 1 "D io_testerDataMemEnable $end
 $var wire 1 "m clock $end
 $var wire 1 #& dataMemory $end
 $var wire 16 #' io_testerDataMemAddress $end
 $var wire 1 #6 io_done $end
 $var wire 1 #> controlUnit $end
 $var wire 1 #l reset $end
 $var wire 16 $" io_testerProgMemAddress $end
 $var wire 1 $# io_run $end
 $var wire 32 $' io_testerProgMemDataRead $end
  $scope module controlUnit $end
   $var wire 1 " _GEN_29 $end
   $var wire 1 % _GEN_56 $end
   $var wire 1 ' _GEN_7 $end
   $var wire 1 ( io_memToReg $end
   $var wire 1 ) _GEN_14 $end
   $var wire 1 , _GEN_41 $end
   $var wire 1 / _GEN_35 $end
   $var wire 1 2 _GEN_20 $end
   $var wire 1 3 _GEN_17 $end
   $var wire 1 4 _GEN_38 $end
   $var wire 1 5 _GEN_23 $end
   $var wire 1 8 _GEN_91 $end
   $var wire 1 ? io_ALUSrc $end
   $var wire 1 K _GEN_73 $end
   $var wire 1 O _GEN_88 $end
   $var wire 1 P _GEN_94 $end
   $var wire 1 R _GEN_11 $end
   $var wire 4 W _GEN_55 $end
   $var wire 1 X _GEN_82 $end
   $var wire 1 ] _GEN_76 $end
   $var wire 1 ^ _GEN_61 $end
   $var wire 1 g _GEN_97 $end
   $var wire 1 k _GEN_85 $end
   $var wire 1 l _GEN_58 $end
   $var wire 1 o _GEN_70 $end
   $var wire 1 p _GEN_79 $end
   $var wire 1 r _GEN_37 $end
   $var wire 1 s _GEN_43 $end
   $var wire 4 w _GEN_9 $end
   $var wire 1 } _GEN_3 $end
   $var wire 1 "" _GEN_67 $end
   $var wire 4 "# _GEN_31 $end
   $var wire 1 "' _GEN_46 $end
   $var wire 1 "( _GEN_52 $end
   $var wire 1 ", _GEN_10 $end
   $var wire 1 "1 _GEN_13 $end
   $var wire 1 "3 _GEN_40 $end
   $var wire 1 "5 _GEN_34 $end
   $var wire 1 "6 _GEN_28 $end
   $var wire 1 "7 _GEN_96 $end
   $var wire 1 "< _GEN_6 $end
   $var wire 1 "C _GEN_49 $end
   $var wire 4 "G _GEN_90 $end
   $var wire 1 "I _GEN_22 $end
   $var wire 1 "J _GEN_78 $end
   $var wire 4 "N _GEN_99 $end
   $var wire 4 "O _GEN_16 $end
   $var wire 1 "Q _GEN_84 $end
   $var wire 1 "S io_regWrite $end
   $var wire 1 "U _GEN_66 $end
   $var wire 4 "^ _GEN_72 $end
   $var wire 1 "_ _GEN_87 $end
   $var wire 3 "` io_ALUOpcode $end
   $var wire 1 "c _GEN_93 $end
   $var wire 4 "g _GEN_5 $end
   $var wire 1 "j _GEN_54 $end
   $var wire 1 "k _GEN_60 $end
   $var wire 1 "l _GEN_69 $end
   $var wire 1 "p _GEN_75 $end
   $var wire 1 "q io_regDest $end
   $var wire 1 "r _GEN_48 $end
   $var wire 1 "t _T $end
   $var wire 1 "w io_JR $end
   $var wire 4 "z _GEN_81 $end
   $var wire 1 #$ _GEN_36 $end
   $var wire 4 #% _GEN_63 $end
   $var wire 1 #* _GEN_21 $end
   $var wire 1 #+ _GEN_57 $end
   $var wire 1 #/ _GEN_42 $end
   $var wire 1 #2 _GEN_8 $end
   $var wire 4 #3 _GEN_24 $end
   $var wire 4 #4 _GEN_18 $end
   $var wire 1 #5 io_memWrite $end
   $var wire 4 #8 _GEN_39 $end
   $var wire 1 #< _GEN_45 $end
   $var wire 1 #@ io_stop $end
   $var wire 1 #B _GEN_30 $end
   $var wire 1 #C _GEN_51 $end
   $var wire 1 #G _GEN_12 $end
   $var wire 1 #H _GEN_27 $end
   $var wire 1 #I _GEN_95 $end
   $var wire 1 #J _GEN_33 $end
   $var wire 1 #K _GEN_89 $end
   $var wire 1 #R _GEN_80 $end
   $var wire 1 #V io_jumpEnable $end
   $var wire 1 #Z _GEN_62 $end
   $var wire 1 #] _GEN_77 $end
   $var wire 1 #^ _GEN_83 $end
   $var wire 1 #c _GEN_98 $end
   $var wire 6 #d io_opcode $end
   $var wire 1 #e _GEN_50 $end
   $var wire 2 #f _GEN_1 $end
   $var wire 1 #g _GEN_44 $end
   $var wire 1 #k _GEN_65 $end
   $var wire 1 #r _GEN_71 $end
   $var wire 1 #t _GEN_59 $end
   $var wire 1 #u _GEN_86 $end
   $var wire 1 #v _GEN_92 $end
   $var wire 1 #y _GEN_68 $end
   $var wire 1 #z _GEN_26 $end
   $var wire 1 #~ _GEN_53 $end
   $var wire 4 $$ _GEN_47 $end
   $var wire 1 $( _GEN_74 $end
   $var wire 1 $- _GEN_4 $end
  $upscope $end
  $scope module dataMemory $end
   $var wire 32 $ _GEN_11 $end
   $var wire 32 + io_testerDataWrite $end
   $var wire 1 ; clock $end
   $var wire 1 A io_testerEnable $end
   $var wire 32 b io_dataRead $end
   $var wire 32 c io_dataWrite $end
   $var wire 1 "> io_testerWriteEnable $end
   $var wire 32 "@ _GEN_5 $end
   $var wire 16 "] io_address $end
   $var wire 1 "d io_writeEnable $end
   $var wire 16 #7 io_testerAddress $end
   $var wire 32 #: memory $end
   $var wire 32 #N io_testerDataRead $end
    $scope module memory $end
      $scope module _T_1 $end
       $var wire 16 * addr $end
       $var wire 16 6 pipeline_addr_0 $end
       $var wire 1 F en $end
       $var wire 32 ~ data $end
       $var wire 32 "Y pipeline_data_0 $end
       $var wire 1 #- pipeline_valid_0 $end
       $var wire 1 #D valid $end
       $var wire 1 #P mask $end
       $var wire 1 #m clk $end
      $upscope $end
      $scope module _T $end
       $var wire 1 1 clk $end
       $var wire 16 "\ addr $end
       $var wire 1 "f en $end
       $var wire 32 #b data $end
      $upscope $end
      $scope module _T_3 $end
       $var wire 1 D pipeline_valid_0 $end
       $var wire 1 H en $end
       $var wire 1 I mask $end
       $var wire 16 V pipeline_addr_0 $end
       $var wire 16 ": addr $end
       $var wire 1 "Z clk $end
       $var wire 32 #) pipeline_data_0 $end
       $var wire 32 #? data $end
       $var wire 1 $. valid $end
      $upscope $end
      $scope module _T_2 $end
       $var wire 1 Y clk $end
       $var wire 16 d addr $end
       $var wire 32 "T data $end
       $var wire 1 "} en $end
      $upscope $end
    $upscope $end
  $upscope $end
  $scope module programCounter $end
   $var wire 1 : io_stop $end
   $var wire 1 E io_run $end
   $var wire 16 N io_programCounter $end
   $var wire 1 ` io_jump $end
   $var wire 1 "E clock $end
   $var wire 16 "L finReg $end
   $var wire 1 #F reset $end
   $var wire 1 #S _T $end
   $var wire 16 #i io_programCounterJump $end
  $upscope $end
  $scope module programMemory $end
   $var wire 16 Q io_address $end
   $var wire 32 t io_testerDataRead $end
   $var wire 16 "% io_testerAddress $end
   $var wire 1 "F clock $end
   $var wire 1 #" io_testerEnable $end
   $var wire 32 #. _GEN_5 $end
   $var wire 32 #_ io_testerDataWrite $end
   $var wire 32 #` io_instructionRead $end
   $var wire 32 $! memory $end
   $var wire 1 $& io_testerWriteEnable $end
    $scope module memory $end
      $scope module _T $end
       $var wire 32 G data $end
       $var wire 1 "2 en $end
       $var wire 1 "[ clk $end
       $var wire 16 #W addr $end
      $upscope $end
      $scope module _T_1 $end
       $var wire 1 J pipeline_valid_0 $end
       $var wire 32 M data $end
       $var wire 16 T pipeline_addr_0 $end
       $var wire 1 [ valid $end
       $var wire 1 "R en $end
       $var wire 32 "h pipeline_data_0 $end
       $var wire 1 "i mask $end
       $var wire 1 ## clk $end
       $var wire 16 #1 addr $end
      $upscope $end
      $scope module _T_2 $end
       $var wire 32 "! data $end
       $var wire 16 #\ addr $end
       $var wire 1 #x clk $end
       $var wire 1 $) en $end
      $upscope $end
    $upscope $end
  $upscope $end
  $scope module registerFile $end
   $var wire 32 ! io_writeData $end
   $var wire 32 # _GEN_4 $end
   $var wire 32 . registerFile_14 $end
   $var wire 32 0 registerFile_6 $end
   $var wire 32 9 registerFile_0 $end
   $var wire 32 > registerFile_9 $end
   $var wire 32 L io_readData2 $end
   $var wire 32 S _GEN_33 $end
   $var wire 32 U _GEN_3 $end
   $var wire 32 Z _GEN_21 $end
   $var wire 32 \ _GEN_36 $end
   $var wire 1 _ clock $end
   $var wire 32 a registerFile_13 $end
   $var wire 32 f _GEN_42 $end
   $var wire 32 i _GEN_6 $end
   $var wire 32 j _GEN_39 $end
   $var wire 32 m _GEN_30 $end
   $var wire 32 n _GEN_24 $end
   $var wire 32 q _GEN_18 $end
   $var wire 32 u _GEN_45 $end
   $var wire 32 v registerFile_8 $end
   $var wire 32 x registerFile_10 $end
   $var wire 32 y _GEN_12 $end
   $var wire 5 z io_readReg2 $end
   $var wire 32 { _GEN_9 $end
   $var wire 32 | registerFile_2 $end
   $var wire 32 "- _GEN_27 $end
   $var wire 32 ". io_readData1 $end
   $var wire 32 "8 registerFile_5 $end
   $var wire 32 "M _GEN_44 $end
   $var wire 32 "P _GEN_38 $end
   $var wire 32 "V _GEN_32 $end
   $var wire 32 "W _GEN_26 $end
   $var wire 32 "X _GEN_8 $end
   $var wire 32 "b _GEN_47 $end
   $var wire 32 "e _GEN_29 $end
   $var wire 32 "n _GEN_2 $end
   $var wire 32 "o _GEN_35 $end
   $var wire 32 "s _GEN_20 $end
   $var wire 32 "u registerFile_12 $end
   $var wire 32 "v _GEN_14 $end
   $var wire 1 "x io_regWrite $end
   $var wire 32 "y _GEN_41 $end
   $var wire 32 "{ _GEN_23 $end
   $var wire 32 "| _GEN_17 $end
   $var wire 32 "~ registerFile_7 $end
   $var wire 32 #! _GEN_5 $end
   $var wire 32 #( registerFile_15 $end
   $var wire 32 #9 registerFile_1 $end
   $var wire 5 #; io_readReg1 $end
   $var wire 32 #A _GEN_11 $end
   $var wire 32 #O registerFile_4 $end
   $var wire 32 #Q _GEN_40 $end
   $var wire 32 #T _GEN_43 $end
   $var wire 32 #U _GEN_37 $end
   $var wire 32 #X _GEN_22 $end
   $var wire 4 #h _T $end
   $var wire 32 #j _GEN_25 $end
   $var wire 5 #n io_writeReg $end
   $var wire 32 #o _GEN_10 $end
   $var wire 32 #p _GEN_7 $end
   $var wire 32 #q _GEN_46 $end
   $var wire 32 #s _GEN_19 $end
   $var wire 32 #w _GEN_28 $end
   $var wire 32 #{ _GEN_1 $end
   $var wire 32 #| _GEN_34 $end
   $var wire 32 #} registerFile_3 $end
   $var wire 32 $* _GEN_13 $end
   $var wire 32 $+ registerFile_11 $end
  $upscope $end
  $scope module alu $end
   $var wire 1 - _GEN_1 $end
   $var wire 32 < _GEN_4 $end
   $var wire 32 @ _GEN_18 $end
   $var wire 64 C _GEN_12 $end
   $var wire 1 e _GEN_15 $end
   $var wire 32 "* io_result $end
   $var wire 32 "/ _GEN_6 $end
   $var wire 32 "4 _GEN_0 $end
   $var wire 32 "9 reg $end
   $var wire 1 "; _GEN_9 $end
   $var wire 1 "? io_compResult $end
   $var wire 64 "A _GEN_14 $end
   $var wire 1 "B _T $end
   $var wire 32 "H io_operand2 $end
   $var wire 1 "K _GEN_3 $end
   $var wire 1 "a _GEN_11 $end
   $var wire 1 #, clock $end
   $var wire 32 #0 _GEN_2 $end
   $var wire 1 #= _GEN_5 $end
   $var wire 64 #E _GEN_10 $end
   $var wire 64 #L _GEN_8 $end
   $var wire 1 #M _GEN_13 $end
   $var wire 32 #Y io_operand1 $end
   $var wire 4 #[ io_sel $end
   $var wire 64 #a _GEN_16 $end
   $var wire 1 $% _GEN_7 $end
   $var wire 1 $, reset $end
  $upscope $end
$upscope $end
$enddefinitions $end
$dumpvars
b0000000000000000 $"
0o
0"c
0#D
0$%
0R
b00000000000000000000000000000000 #}
0"1
0=
b0000 "N
0#c
b00000 #;
b0000000000000000 "\
b00000000000000000000000000000000 "M
b00000000000000000000000000000000 #.
b00000000000000000000000000000000 "8
0#t
b00000000000000000000000000000000 "4
0"r
0#S
b00000000000000000000000000000000 b
b0000000000000000 Q
b00000000000000000000000000000000 #w
0D
b00000000000000000000000000000000 0
b00000000000000000000000000000000 #o
b00000000000000000000000000000000 "y
0/
b00000000000000000000000000000000 #(
b00000000000000000000000000000000 "*
0r
0]
0"Q
0#2
b00000000000000000000000000000000 #s
0H
0"<
b00000000000000000000000000000000 "u
b00000000000000000000000000000000 $
b00000000000000000000000000000000 "X
b00000000000000000000000000000000 #9
b00000000000000000000000000000000 "&
b0000 $$
0"l
0#M
0$.
0"d
0$&
b00000000000000000000000000000000 q
0p
0"2
b0000 "^
0"}
0#^
b00000000000000000000000000000000 m
0l
0"K
0#,
0O
0"C
0#$
0:
b0000000000000000 T
b0000000000000000000000000000000000000000000000000000000000000000 C
0`
0"?
0?
b00000000000000000000000000000000 #j
0#m
b00000000000000000000000000000000 "W
b00000000000000000000000000000000 t
b0000000000000000 N
0"=
b00000000000000000000000000000000 "v
0;
0#~
0"k
0$-
0#/
b00000000000000000000000000000000 S
b00000000000000000000000000000000 "!
b00000000000000000000000000000000 >
b00000000000000000000000000000000 !
0k
0"_
0#@
0J
b0000000000000000000000000000000000000000000000000000000000000000 #a
b00000000000000000000000000000000 .
b00000000000000000000000000000000 #X
b00000000000000000000000000000000 "b
0-
0#>
b00000000000000000000000000000000 "0
b00000000000000000000000000000000 M
0"+
b0000000000000000 #i
b00000000000000000000000000000000 #?
b00000000000000000000000000000000 {
1#P
0Y
0'
b00000000000000000000000000000000 $+
b00000000000000000000000000000000 "T
b0000000000000000 #'
0"I
0#*
08
0",
b00000000000000000000000000000000 #N
b00000000000000000000000000000000 "e
b00000000000000000000000000000000 "P
b00000000000000000000000000000000 $'
b0000000000000000 ":
b0000000000000000 "%
0#Z
b00000000000000000000000000000000 ~
1I
0}
0h
b00000000000000000000000000000000 a
b00000000000000000000000000000000 L
0K
0"q
0#R
0#=
0#k
0"m
b0000000000000000000000000000000000000000000000000000000000000000 "A
0";
b00000000000000000000000000000000 @
b00000000000000000000000000000000 +
b00000000000000000000000000000000 #U
b00000000000000000000000000000000 $!
b0000000000000000 #\
b00000000000000000000000000000000 n
0X
0#-
0"7
0""
b00000000000000000000000000000000 <
b00000000000000000000000000000000 #Q
b0000 "z
b0000 #[
0#z
0#]
b0000 W
0#H
0$)
0"J
0#+
b0000 #%
0#v
0"x
b00000000000000000000000000000000 #A
0g
0"[
0"F
b00000000000000000000000000000000 ".
0#<
05
b00000000000000000000000000000000 #`
0")
b0000 #8
0[
0F
b00000000000000000000000000000000 #q
0#l
b00000000000000000000000000000000 "s
b00000000000000000000000000000000 #T
0)
b0000000000000000 #1
b0000 #4
b0000000000000000 *
b0000 w
b00000000000000000000000000000000 "o
0%
b0000000000000000 #W
0"j
0#K
0$,
0"U
0#6
b00000000000000000000000000000000 Z
0#y
0"f
0#G
0$(
b00000000000000000000000000000000 "9
b00000000000000000000000000000000 9
0"w
b00000000000000000000000000000000 |
0"Z
0"E
0#&
04
0"(
b00000000000000000000000000000000 "~
b00000000000000000000000000000000 #_
b00000000000000000000000000000000 i
b00000000000000000000000000000000 "/
0E
b00000000000000000000000000000000 #p
0"$
0(
0#V
b00000000000000000000000000000000 "H
b00000000000000000000000000000000 #)
b00000000000000000000000000000000 "@
b00000000000000000000000000000000 #!
b0000 "g
0#g
0#J
0#5
0#x
b0000000000000000000000000000000000000000000000000000000000000000 #L
0#F
b00000000000000000000000000000000 j
b00000000000000000000000000000000 U
0"3
07
b00000000000000000000000000000000 #b
0"
b00000000000000000000000000000000 #
b00000000000000000000000000000000 #0
b0000000000000000 #7
0"a
0#B
b00000 z
0e
0"D
0$#
b00000000000000000000000000000000 f
b00000000000000000000000000000000 #{
0"'
b00000000000000000000000000000000 "h
b00000000000000000000000000000000 $*
0P
03
b0000 #h
0#r
b0000 "#
b000 "`
0"t
b00000000000000000000000000000000 y
0"B
b00000000000000000000000000000000 \
0##
b0000000000000000 6
b00000000000000000000000000000000 G
b00000000000000000000000000000000 "{
01
0"p
b00000000000000000000000000000000 u
b0000000000000000 d
0"S
0">
0#I
0_
0"6
0B
b00000000000000000000000000000000 &
b0000000000000000 "L
1"i
b0000 "O
b00000 #n
b0000 "G
b00000000000000000000000000000000 "V
b0000000000000000 "]
0#u
02
b00000000000000000000000000000000 "|
0#C
b0000000000000000 V
b00000000000000000000000000000000 #|
b00000000000000000000000000000000 "-
b00 #f
b00000000000000000000000000000000 #Y
b0000000000000000000000000000000000000000000000000000000000000000 #E
b000000 #d
b00000000000000000000000000000000 x
b00000000000000000000000000000000 c
0#"
0#e
0s
0^
0"R
b0000 #3
0A
0,
0"5
b00000000000000000000000000000000 "n
b00000000000000000000000000000000 "Y
b00000000000000000000000000000000 v
b00000000000000000000000000000000 #:
b00000000000000000000000000000000 #O
$end
#0
1#F
1#y
1R
1}
1#]
1#l
1$)
1'
1#H
1"}
1#I
1#t
1/
1)
1#u
1"S
1#C
1s
1"x
12
1$,
1#S
#1
1;
1"m
11
1"E
1##
1Y
1"[
1"F
1#m
1#,
1"Z
1_
1#x
#6
0;
0"m
01
0"E
0##
0Y
0"[
0"F
0#m
0#,
0"Z
0_
0#x
#11
1;
1"m
11
1"E
1##
1Y
1"[
1"F
1#m
1#,
1"Z
1_
1#x
#16
0;
0"m
01
0"E
0##
0Y
0"[
0"F
0#m
0#,
0"Z
0_
0#x
#21
1;
1"m
11
1"E
1##
1Y
1"[
1"F
1#m
1#,
1"Z
1_
1#x
#26
0;
0"m
01
0"E
0##
0Y
0"[
0"F
0#m
0#,
0"Z
0_
0#x
#31
1;
1"m
11
1"E
1##
1Y
1"[
1"F
1#m
1#,
1"Z
1_
1#x
#36
0;
0"m
01
0"E
0##
0Y
0"[
0"F
0#m
0#,
0"Z
0_
0#x
#41
1;
1"m
11
1"E
1##
1Y
1"[
1"F
1#m
1#,
1"Z
1_
1#x
#46
0#x
0"m
0#F
0##
1"f
0Y
0#l
0"}
0#m
1=
0#,
0"Z
1"D
1">
1F
01
0"E
1#D
0"[
0$,
0"F
1A
0;
0_
#51
1#x
1"m
1##
1Y
1#m
1#,
1"Z
1#-
11
1"E
1"[
1"F
1;
1_
#56
0#x
0"m
0##
0Y
0#m
0#,
0"Z
01
0"E
0"[
b0000000000000001 #'
0"F
b0000000000000001 *
b0000000000000001 "\
b0000000000000001 #7
0;
0_
#61
1#x
1"m
1##
1Y
b0000000000000001 6
1#m
1#,
1"Z
11
1"E
1"[
1"F
1;
1_
#66
0#x
0"m
0##
0Y
0#m
0#,
0"Z
01
0"E
0"[
b0000000000000010 #'
0"F
b0000000000000010 *
b0000000000000010 "\
b0000000000000010 #7
0;
0_
#71
1#x
1"m
1##
1Y
b0000000000000010 6
1#m
1#,
1"Z
11
1"E
1"[
1"F
1;
1_
#76
0#x
0"m
0##
0Y
0#m
0#,
0"Z
01
0"E
0"[
b0000000000000011 #'
0"F
b0000000000000011 *
b0000000000000011 "\
b0000000000000011 #7
0;
0_
#81
1#x
1"m
1##
1Y
b0000000000000011 6
1#m
1#,
1"Z
11
1"E
1"[
1"F
1;
1_
#86
0#x
0"m
0##
0Y
0#m
0#,
0"Z
01
0"E
0"[
b0000000000000100 #'
0"F
b0000000000000100 *
b0000000000000100 "\
b0000000000000100 #7
0;
0_
#91
1#x
1"m
1##
1Y
b0000000000000100 6
1#m
1#,
1"Z
11
1"E
1"[
1"F
1;
1_
#96
0#x
0"m
0##
0Y
0#m
0#,
0"Z
01
0"E
0"[
b0000000000000101 #'
0"F
b0000000000000101 *
b0000000000000101 "\
b0000000000000101 #7
0;
0_
#101
1#x
1"m
1##
1Y
b0000000000000101 6
1#m
1#,
1"Z
11
1"E
1"[
1"F
1;
1_
#106
0#x
0"m
0##
0Y
0#m
0#,
0"Z
01
0"E
0"[
b0000000000000110 #'
0"F
b0000000000000110 *
b0000000000000110 "\
b0000000000000110 #7
0;
0_
#111
1#x
1"m
1##
1Y
b0000000000000110 6
1#m
1#,
1"Z
11
1"E
1"[
1"F
1;
1_
#116
0#x
0"m
0##
0Y
0#m
0#,
0"Z
01
0"E
0"[
b0000000000000111 #'
0"F
b0000000000000111 *
b0000000000000111 "\
b0000000000000111 #7
0;
0_
#121
1#x
1"m
1##
1Y
b0000000000000111 6
1#m
1#,
1"Z
11
1"E
1"[
1"F
1;
1_
#126
0#x
0"m
0##
0Y
0#m
0#,
0"Z
01
0"E
0"[
b0000000000001000 #'
0"F
b0000000000001000 *
b0000000000001000 "\
b0000000000001000 #7
0;
0_
#131
1#x
1"m
1##
1Y
b0000000000001000 6
1#m
1#,
1"Z
11
1"E
1"[
1"F
1;
1_
#136
0#x
0"m
0##
0Y
0#m
0#,
0"Z
01
0"E
0"[
b0000000000001001 #'
0"F
b0000000000001001 *
b0000000000001001 "\
b0000000000001001 #7
0;
0_
#141
1#x
1"m
1##
1Y
b0000000000001001 6
1#m
1#,
1"Z
11
1"E
1"[
1"F
1;
1_
#146
0#x
0"m
0##
0Y
0#m
0#,
0"Z
01
0"E
0"[
b0000000000001010 #'
0"F
b0000000000001010 *
b0000000000001010 "\
b0000000000001010 #7
0;
0_
#151
1#x
1"m
1##
1Y
b0000000000001010 6
1#m
1#,
1"Z
11
1"E
1"[
1"F
1;
1_
#156
0#x
0"m
0##
0Y
0#m
0#,
0"Z
01
0"E
0"[
b0000000000001011 #'
0"F
b0000000000001011 *
b0000000000001011 "\
b0000000000001011 #7
0;
0_
#161
1#x
1"m
1##
1Y
b0000000000001011 6
1#m
1#,
1"Z
11
1"E
1"[
1"F
1;
1_
#166
0#x
0"m
0##
0Y
0#m
0#,
0"Z
01
0"E
0"[
b0000000000001100 #'
0"F
b0000000000001100 *
b0000000000001100 "\
b0000000000001100 #7
0;
0_
#171
1#x
1"m
1##
1Y
b0000000000001100 6
1#m
1#,
1"Z
11
1"E
1"[
1"F
1;
1_
#176
0#x
0"m
0##
0Y
0#m
0#,
0"Z
01
0"E
0"[
b0000000000001101 #'
0"F
b0000000000001101 *
b0000000000001101 "\
b0000000000001101 #7
0;
0_
#181
1#x
1"m
1##
1Y
b0000000000001101 6
1#m
1#,
1"Z
11
1"E
1"[
1"F
1;
1_
#186
0#x
0"m
0##
0Y
0#m
0#,
0"Z
01
0"E
0"[
b0000000000001110 #'
0"F
b0000000000001110 *
b0000000000001110 "\
b0000000000001110 #7
0;
0_
#191
1#x
1"m
1##
1Y
b0000000000001110 6
1#m
1#,
1"Z
11
1"E
1"[
1"F
1;
1_
#196
0#x
0"m
0##
0Y
0#m
0#,
0"Z
01
0"E
0"[
b0000000000001111 #'
0"F
b0000000000001111 *
b0000000000001111 "\
b0000000000001111 #7
0;
0_
#201
1#x
1"m
1##
1Y
b0000000000001111 6
1#m
1#,
1"Z
11
1"E
1"[
1"F
1;
1_
#206
0#x
0"m
0##
0Y
0#m
0#,
0"Z
01
0"E
0"[
b0000000000010000 #'
0"F
b0000000000010000 *
b0000000000010000 "\
b0000000000010000 #7
0;
0_
#211
1#x
1"m
1##
1Y
b0000000000010000 6
1#m
1#,
1"Z
11
1"E
1"[
1"F
1;
1_
#216
0#x
0"m
0##
0Y
0#m
0#,
0"Z
01
0"E
0"[
b0000000000010001 #'
0"F
b0000000000010001 *
b0000000000010001 "\
b0000000000010001 #7
0;
0_
#221
1#x
1"m
1##
1Y
b0000000000010001 6
1#m
1#,
1"Z
11
1"E
1"[
1"F
1;
1_
#226
0#x
0"m
0##
0Y
0#m
0#,
0"Z
01
0"E
0"[
b0000000000010010 #'
0"F
b0000000000010010 *
b0000000000010010 "\
b0000000000010010 #7
0;
0_
#231
1#x
1"m
1##
1Y
b0000000000010010 6
1#m
1#,
1"Z
11
1"E
1"[
1"F
1;
1_
#236
0#x
0"m
0##
0Y
0#m
0#,
0"Z
01
0"E
0"[
b0000000000010011 #'
0"F
b0000000000010011 *
b0000000000010011 "\
b0000000000010011 #7
0;
0_
#241
1#x
1"m
1##
1Y
b0000000000010011 6
1#m
1#,
1"Z
11
1"E
1"[
1"F
1;
1_
#246
0#x
0"m
0##
0Y
0#m
0#,
0"Z
01
0"E
0"[
b0000000000010100 #'
0"F
b0000000000010100 *
b0000000000010100 "\
b0000000000010100 #7
0;
0_
#251
1#x
1"m
1##
1Y
b0000000000010100 6
1#m
1#,
1"Z
11
1"E
1"[
1"F
1;
1_
#256
0#x
0"m
0##
0Y
0#m
0#,
0"Z
01
0"E
0"[
b0000000000010101 #'
0"F
b0000000000010101 *
b0000000000010101 "\
b0000000000010101 #7
0;
0_
#261
1#x
1"m
1##
1Y
b0000000000010101 6
1#m
1#,
1"Z
11
1"E
1"[
1"F
1;
1_
#266
0#x
0"m
0##
0Y
0#m
0#,
0"Z
01
0"E
0"[
b0000000000010110 #'
0"F
b0000000000010110 *
b0000000000010110 "\
b0000000000010110 #7
0;
0_
#271
1#x
1"m
1##
1Y
b0000000000010110 6
1#m
1#,
1"Z
11
1"E
1"[
1"F
1;
1_
#276
0#x
0"m
0##
0Y
0#m
0#,
0"Z
01
0"E
0"[
b0000000000010111 #'
0"F
b0000000000010111 *
b0000000000010111 "\
b0000000000010111 #7
0;
0_
#281
1#x
1"m
1##
1Y
b0000000000010111 6
1#m
1#,
1"Z
11
1"E
1"[
1"F
1;
1_
#286
0#x
0"m
0##
0Y
0#m
0#,
0"Z
01
0"E
0"[
b0000000000011000 #'
0"F
b0000000000011000 *
b0000000000011000 "\
b0000000000011000 #7
0;
0_
#291
1#x
1"m
1##
1Y
b0000000000011000 6
1#m
1#,
1"Z
11
1"E
1"[
1"F
1;
1_
#296
0#x
0"m
0##
0Y
0#m
0#,
0"Z
01
0"E
0"[
b0000000000011001 #'
0"F
b0000000000011001 *
b0000000000011001 "\
b0000000000011001 #7
0;
0_
#301
1#x
1"m
1##
1Y
b0000000000011001 6
1#m
1#,
1"Z
11
1"E
1"[
1"F
1;
1_
#306
0#x
0"m
0##
0Y
0#m
0#,
0"Z
01
0"E
0"[
b0000000000011010 #'
0"F
b0000000000011010 *
b0000000000011010 "\
b0000000000011010 #7
0;
0_
#311
1#x
1"m
1##
1Y
b0000000000011010 6
1#m
1#,
1"Z
11
1"E
1"[
1"F
1;
1_
#316
0#x
0"m
0##
0Y
0#m
0#,
0"Z
01
0"E
0"[
b0000000000011011 #'
0"F
b0000000000011011 *
b0000000000011011 "\
b0000000000011011 #7
0;
0_
#321
1#x
1"m
1##
1Y
b0000000000011011 6
1#m
1#,
1"Z
11
1"E
1"[
1"F
1;
1_
#326
0#x
0"m
0##
0Y
0#m
0#,
0"Z
01
0"E
0"[
b0000000000011100 #'
0"F
b0000000000011100 *
b0000000000011100 "\
b0000000000011100 #7
0;
0_
#331
1#x
1"m
1##
1Y
b0000000000011100 6
1#m
1#,
1"Z
11
1"E
1"[
1"F
1;
1_
#336
0#x
0"m
0##
0Y
0#m
0#,
0"Z
01
0"E
0"[
b0000000000011101 #'
0"F
b0000000000011101 *
b0000000000011101 "\
b0000000000011101 #7
0;
0_
#341
1#x
1"m
1##
1Y
b0000000000011101 6
1#m
1#,
1"Z
11
1"E
1"[
1"F
1;
1_
#346
0#x
0"m
0##
0Y
0#m
0#,
0"Z
01
0"E
0"[
b0000000000011110 #'
0"F
b0000000000011110 *
b0000000000011110 "\
b0000000000011110 #7
0;
0_
#351
1#x
1"m
1##
1Y
b0000000000011110 6
1#m
1#,
1"Z
11
1"E
1"[
1"F
1;
1_
#356
0#x
0"m
0##
0Y
0#m
0#,
0"Z
01
0"E
0"[
b0000000000011111 #'
0"F
b0000000000011111 *
b0000000000011111 "\
b0000000000011111 #7
0;
0_
#361
1#x
1"m
1##
1Y
b0000000000011111 6
1#m
1#,
1"Z
11
1"E
1"[
1"F
1;
1_
#366
0#x
0"m
0##
0Y
0#m
0#,
0"Z
01
0"E
0"[
b0000000000100000 #'
0"F
b0000000000100000 *
b0000000000100000 "\
b0000000000100000 #7
0;
0_
#371
1#x
1"m
1##
1Y
b0000000000100000 6
1#m
1#,
1"Z
11
1"E
1"[
1"F
1;
1_
#376
0#x
0"m
0##
0Y
0#m
0#,
0"Z
01
0"E
0"[
b0000000000100001 #'
0"F
b0000000000100001 *
b0000000000100001 "\
b0000000000100001 #7
0;
0_
#381
1#x
1"m
1##
1Y
b0000000000100001 6
1#m
1#,
1"Z
11
1"E
1"[
1"F
1;
1_
#386
0#x
0"m
0##
0Y
0#m
0#,
0"Z
01
0"E
0"[
b0000000000100010 #'
0"F
b0000000000100010 *
b0000000000100010 "\
b0000000000100010 #7
0;
0_
#391
1#x
1"m
1##
1Y
b0000000000100010 6
1#m
1#,
1"Z
11
1"E
1"[
1"F
1;
1_
#396
0#x
0"m
0##
0Y
0#m
0#,
0"Z
01
0"E
0"[
b0000000000100011 #'
0"F
b0000000000100011 *
b0000000000100011 "\
b0000000000100011 #7
0;
0_
#401
1#x
1"m
1##
1Y
b0000000000100011 6
1#m
1#,
1"Z
11
1"E
1"[
1"F
1;
1_
#406
0#x
0"m
0##
0Y
0#m
0#,
0"Z
01
0"E
0"[
b0000000000100100 #'
0"F
b0000000000100100 *
b0000000000100100 "\
b0000000000100100 #7
0;
0_
#411
1#x
1"m
1##
1Y
b0000000000100100 6
1#m
1#,
1"Z
11
1"E
1"[
1"F
1;
1_
#416
0#x
0"m
0##
0Y
0#m
0#,
0"Z
01
0"E
0"[
b0000000000100101 #'
0"F
b0000000000100101 *
b0000000000100101 "\
b0000000000100101 #7
0;
0_
