generated/Hello.vcd
$date
2023-10-04T13:51+0000
$end
$version
0.2
$end
$comment

$end
$timescale 1ns  $end
$scope module Hello $end
 $var wire 32 " io_testerDataMemDataRead $end
 $var wire 17 & _GEN_2 $end
 $var wire 1 ' _T $end
 $var wire 1 * io_testerDataMemWriteEnable $end
 $var wire 32 + dataReg $end
 $var wire 17 6 addressCounterReg $end
 $var wire 32 8 io_testerDataMemDataWrite $end
 $var wire 1 < io_testerDataMemEnable $end
 $var wire 1 D clock $end
 $var wire 16 G io_testerDataMemAddress $end
 $var wire 1 H dataMemory $end
 $var wire 1 K io_done $end
 $var wire 17 Q _GEN_0 $end
 $var wire 1 S reset $end
 $var wire 32 U _GEN_3 $end
 $var wire 1 V io_run $end
  $scope module dataMemory $end
   $var wire 32 ! _GEN_11 $end
   $var wire 32 $ io_testerDataWrite $end
   $var wire 1 ) clock $end
   $var wire 1 , io_testerEnable $end
   $var wire 32 3 io_dataWrite $end
   $var wire 32 4 io_dataRead $end
   $var wire 1 : io_testerWriteEnable $end
   $var wire 32 ; _GEN_5 $end
   $var wire 16 A io_address $end
   $var wire 1 C io_writeEnable $end
   $var wire 16 J io_testerAddress $end
   $var wire 32 L memory $end
   $var wire 32 O io_testerDataRead $end
    $scope module memory $end
      $scope module _T_1 $end
       $var wire 16 # addr $end
       $var wire 16 ( pipeline_addr_0 $end
       $var wire 1 . en $end
       $var wire 32 7 data $end
       $var wire 32 > pipeline_data_0 $end
       $var wire 1 I pipeline_valid_0 $end
       $var wire 1 N valid $end
       $var wire 1 P mask $end
       $var wire 1 T clk $end
      $upscope $end
      $scope module _T $end
       $var wire 1 % clk $end
       $var wire 16 @ addr $end
       $var wire 1 B en $end
       $var wire 32 R data $end
      $upscope $end
      $scope module _T_3 $end
       $var wire 1 - pipeline_valid_0 $end
       $var wire 1 / en $end
       $var wire 1 0 mask $end
       $var wire 16 1 pipeline_addr_0 $end
       $var wire 16 9 addr $end
       $var wire 1 ? clk $end
       $var wire 32 F pipeline_data_0 $end
       $var wire 32 M data $end
       $var wire 1 W valid $end
      $upscope $end
      $scope module _T_2 $end
       $var wire 1 2 clk $end
       $var wire 16 5 addr $end
       $var wire 32 = data $end
       $var wire 1 E en $end
      $upscope $end
    $upscope $end
  $upscope $end
$upscope $end
$enddefinitions $end
$dumpvars
0%
0C
b0000000000000000 A
0<
0'
b00000000000000000000000000000000 =
1P
b00000000000000000000000000000000 >
b00000000000000000000000000000000 !
0S
b00000000000000000000000000000000 7
b00000000000000000000000000000000 "
0T
b00000000000000000000000000000000 U
b00000000000000000000000000000000 8
b00000000000000000 &
b0000000000000000 (
0V
0N
b00000000000000000000000000000000 O
10
0:
b00000000000000000000000000000000 3
02
b0000000000000000 @
b00000000000000000000000000000000 4
b0000000000000000 #
b00000000000000000000000000000000 R
0I
b0000000000000000 9
0-
0K
b00000000000000000000000000000000 L
0.
b00000000000000000000000000000000 M
0D
0/
b00000000000000000 Q
b0000000000000000 J
b0000000000000000 5
b00000000000000000000000000000000 F
0E
0)
b00000000000000000 6
0*
b00000000000000000000000000000000 +
0H
0?
b00000000000000000000000000000000 $
b0000000000000000 1
0,
b0000000000000000 G
0B
0W
b00000000000000000000000000000000 ;
$end
#0
b00000000000000000000000011111111 3
1S
1E
b00000000000000000000000011111111 M
#1
1T
1?
1%
b00000000000000000000000011111111 F
1D
12
1)
#6
0T
0?
0%
0D
02
0)
#11
1T
1?
1%
1D
12
1)
#16
0T
0?
0%
0D
02
0)
#21
1T
1?
1%
1D
12
1)
#26
0T
0?
0%
0D
02
0)
#31
1T
1?
1%
1D
12
1)
#36
0T
0?
0%
0D
02
0)
#41
1T
1?
1%
1D
12
1)
#46
1B
1<
0%
1.
0D
0S
0E
0)
0T
0?
1N
02
1*
1:
1,
#51
1T
1?
1%
1D
12
1I
1)
#56
0T
0?
0%
b0000000000000001 @
b0000000000000001 J
b0000000000000001 G
0D
b0000000000000001 #
02
0)
#61
1T
1?
1%
1D
12
b0000000000000001 (
1)
#66
0T
0?
0%
b0000000000000010 @
b0000000000000010 J
b0000000000000010 G
0D
b0000000000000010 #
02
0)
#71
1T
1?
1%
1D
12
b0000000000000010 (
1)
#76
0T
0?
0%
b0000000000000011 @
b0000000000000011 J
b0000000000000011 G
0D
b0000000000000011 #
02
0)
#81
1T
1?
1%
1D
12
b0000000000000011 (
1)
#86
0T
0?
0%
b0000000000000100 @
b0000000000000100 J
b0000000000000100 G
0D
b0000000000000100 #
02
0)
#91
1T
1?
1%
1D
12
b0000000000000100 (
1)
#96
0T
0?
0%
b0000000000000101 @
b0000000000000101 J
b0000000000000101 G
0D
b0000000000000101 #
02
0)
#101
1T
1?
1%
1D
12
b0000000000000101 (
1)
#106
0T
0?
0%
b0000000000000110 @
b0000000000000110 J
b0000000000000110 G
0D
b0000000000000110 #
02
0)
#111
1T
1?
1%
1D
12
b0000000000000110 (
1)
#116
0T
0?
0%
b0000000000000111 @
b0000000000000111 J
b0000000000000111 G
0D
b0000000000000111 #
02
0)
#121
1T
1?
1%
1D
12
b0000000000000111 (
1)
#126
0T
0?
0%
b0000000000001000 @
b0000000000001000 J
b0000000000001000 G
0D
b0000000000001000 #
02
0)
#131
1T
1?
1%
1D
12
b0000000000001000 (
1)
#136
0T
0?
0%
b0000000000001001 @
b0000000000001001 J
b0000000000001001 G
0D
b0000000000001001 #
02
0)
#141
1T
1?
1%
1D
12
b0000000000001001 (
1)
#146
0T
0?
0%
b0000000000001010 @
b0000000000001010 J
b0000000000001010 G
0D
b0000000000001010 #
02
0)
#151
1T
1?
1%
1D
12
b0000000000001010 (
1)
#156
0T
0?
0%
b0000000000001011 @
b0000000000001011 J
b0000000000001011 G
0D
b0000000000001011 #
02
0)
#161
1T
1?
1%
1D
12
b0000000000001011 (
1)
#166
0T
0?
0%
b0000000000001100 @
b0000000000001100 J
b0000000000001100 G
0D
b0000000000001100 #
02
0)
#171
1T
1?
1%
1D
12
b0000000000001100 (
1)
#176
0T
0?
0%
b0000000000001101 @
b0000000000001101 J
b0000000000001101 G
0D
b0000000000001101 #
02
0)
#181
1T
1?
1%
1D
12
b0000000000001101 (
1)
#186
0T
0?
0%
b0000000000001110 @
b0000000000001110 J
b0000000000001110 G
0D
b0000000000001110 #
02
0)
#191
1T
1?
1%
1D
12
b0000000000001110 (
1)
#196
0T
0?
0%
b0000000000001111 @
b0000000000001111 J
b0000000000001111 G
0D
b0000000000001111 #
02
0)
#201
1T
1?
1%
1D
12
b0000000000001111 (
1)
#206
0T
0?
0%
b0000000000010000 @
b0000000000010000 J
b0000000000010000 G
0D
b0000000000010000 #
02
0)
#211
1T
1?
1%
1D
12
b0000000000010000 (
1)
#216
0T
0?
0%
b0000000000010001 @
b0000000000010001 J
b0000000000010001 G
0D
b0000000000010001 #
02
0)
#221
1T
1?
1%
1D
12
b0000000000010001 (
1)
#226
0T
0?
0%
b0000000000010010 @
b0000000000010010 J
b0000000000010010 G
0D
b0000000000010010 #
02
0)
#231
1T
1?
1%
1D
12
b0000000000010010 (
1)
#236
0T
0?
0%
b0000000000010011 @
b0000000000010011 J
b0000000000010011 G
0D
b0000000000010011 #
02
0)
#241
1T
1?
1%
1D
12
b0000000000010011 (
1)
#246
0T
0?
0%
b0000000000010100 @
b0000000000010100 J
b0000000000010100 G
0D
b0000000000010100 #
02
0)
#251
1T
1?
1%
1D
12
b0000000000010100 (
1)
#256
0T
0?
0%
b0000000000010101 @
b0000000000010101 J
b0000000000010101 G
0D
b0000000000010101 #
02
0)
#261
1T
1?
1%
1D
12
b0000000000010101 (
1)
#266
0T
0?
0%
b0000000000010110 @
b0000000000010110 J
b0000000000010110 G
0D
b0000000000010110 #
02
0)
#271
1T
1?
1%
1D
12
b0000000000010110 (
1)
#276
0T
0?
0%
b0000000000010111 @
b0000000000010111 J
b0000000000010111 G
0D
b0000000000010111 #
02
0)
#281
1T
1?
1%
1D
12
b0000000000010111 (
1)
#286
0T
0?
0%
b0000000000011000 @
b0000000000011000 J
b0000000000011000 G
0D
b0000000000011000 #
02
0)
#291
1T
1?
1%
1D
12
b0000000000011000 (
1)
#296
0T
0?
0%
b0000000000011001 @
b0000000000011001 J
b0000000000011001 G
0D
b0000000000011001 #
02
0)
#301
1T
1?
1%
1D
12
b0000000000011001 (
1)
#306
0T
0?
0%
b0000000000011010 @
b0000000000011010 J
b0000000000011010 G
0D
b0000000000011010 #
02
0)
#311
1T
1?
1%
1D
12
b0000000000011010 (
1)
#316
0T
0?
0%
b0000000000011011 @
b0000000000011011 J
b0000000000011011 G
0D
b0000000000011011 #
02
0)
#321
1T
1?
1%
1D
12
b0000000000011011 (
1)
#326
0T
0?
0%
b0000000000011100 @
b0000000000011100 J
b0000000000011100 G
0D
b0000000000011100 #
02
0)
#331
1T
1?
1%
1D
12
b0000000000011100 (
1)
#336
0T
0?
0%
b0000000000011101 @
b0000000000011101 J
b0000000000011101 G
0D
b0000000000011101 #
02
0)
#341
1T
1?
1%
1D
12
b0000000000011101 (
1)
#346
0T
0?
0%
b0000000000011110 @
b0000000000011110 J
b0000000000011110 G
0D
b0000000000011110 #
02
0)
#351
1T
1?
1%
1D
12
b0000000000011110 (
1)
#356
0T
0?
0%
b0000000000011111 @
b0000000000011111 J
b0000000000011111 G
0D
b0000000000011111 #
02
0)
#361
1T
1?
1%
1D
12
b0000000000011111 (
1)
#366
0T
0?
0%
b0000000000100000 @
b0000000000100000 J
b0000000000100000 G
0D
b0000000000100000 #
02
0)
#371
1T
1?
1%
1D
12
b0000000000100000 (
1)
#376
0T
0?
0%
b0000000000100001 @
b0000000000100001 J
b0000000000100001 G
0D
b0000000000100001 #
02
0)
#381
1T
1?
1%
1D
12
b0000000000100001 (
1)
#386
0T
0?
0%
b0000000000100010 @
b0000000000100010 J
b0000000000100010 G
0D
b0000000000100010 #
02
0)
#391
1T
1?
1%
1D
12
b0000000000100010 (
1)
#396
0T
0?
0%
b0000000000100011 @
b0000000000100011 J
b0000000000100011 G
0D
b0000000000100011 #
02
0)
#401
1T
1?
1%
1D
12
b0000000000100011 (
1)
#406
0T
0?
0%
b0000000000100100 @
b0000000000100100 J
b0000000000100100 G
0D
b0000000000100100 #
02
0)
#411
1T
1?
1%
1D
12
b0000000000100100 (
1)
#416
0T
0?
0%
b0000000000100101 @
b0000000000100101 J
b0000000000100101 G
0D
b0000000000100101 #
02
0)
#421
1T
1?
1%
1D
12
b0000000000100101 (
1)
#426
0T
0?
0%
b0000000000100110 @
b0000000000100110 J
b0000000000100110 G
0D
b0000000000100110 #
02
0)
#431
1T
1?
1%
1D
12
b0000000000100110 (
1)
#436
0T
0?
0%
b0000000000100111 @
b0000000000100111 J
b0000000000100111 G
0D
b0000000000100111 #
02
0)
#441
1T
1?
1%
1D
12
b0000000000100111 (
1)
#446
0T
0?
0%
b0000000000101000 @
b0000000000101000 J
b0000000000101000 G
0D
b0000000000101000 #
02
0)
#451
1T
1?
1%
1D
12
b0000000000101000 (
1)
#456
0T
0?
0%
b0000000000101001 @
b0000000000101001 J
b0000000000101001 G
0D
b0000000000101001 #
02
0)
#461
1T
1?
1%
1D
12
b0000000000101001 (
1)
#466
0T
0?
0%
b0000000000101010 @
b0000000000101010 J
b0000000000101010 G
0D
b0000000000101010 #
02
0)
#471
1T
1?
1%
1D
12
b0000000000101010 (
1)
#476
0T
0?
0%
b0000000000101011 @
b0000000000101011 J
b0000000000101011 G
0D
b0000000000101011 #
02
0)
#481
1T
1?
1%
1D
12
b0000000000101011 (
1)
#486
0T
0?
0%
b0000000000101100 @
b0000000000101100 J
b0000000000101100 G
0D
b0000000000101100 #
02
0)
#491
1T
1?
1%
1D
12
b0000000000101100 (
1)
#496
0T
0?
0%
b0000000000101101 @
b0000000000101101 J
b0000000000101101 G
0D
b0000000000101101 #
02
0)
#501
1T
1?
1%
1D
12
b0000000000101101 (
1)
#506
0T
0?
0%
b0000000000101110 @
b0000000000101110 J
b0000000000101110 G
0D
b0000000000101110 #
02
0)
#511
1T
1?
1%
1D
12
b0000000000101110 (
1)
#516
0T
0?
0%
b0000000000101111 @
b0000000000101111 J
b0000000000101111 G
0D
b0000000000101111 #
02
0)
#521
1T
1?
1%
1D
12
b0000000000101111 (
1)
#526
0T
0?
0%
b0000000000110000 @
b0000000000110000 J
b0000000000110000 G
0D
b0000000000110000 #
02
0)
#531
1T
1?
1%
1D
12
b0000000000110000 (
1)
#536
0T
0?
0%
b0000000000110001 @
b0000000000110001 J
b0000000000110001 G
0D
b0000000000110001 #
02
0)
#541
1T
1?
1%
1D
12
b0000000000110001 (
1)
#546
0T
0?
0%
b0000000000110010 @
b0000000000110010 J
b0000000000110010 G
0D
b0000000000110010 #
02
0)
#551
1T
1?
1%
1D
12
b0000000000110010 (
1)
#556
0T
0?
0%
b0000000000110011 @
b0000000000110011 J
b0000000000110011 G
0D
b0000000000110011 #
02
0)
#561
1T
1?
1%
1D
12
b0000000000110011 (
1)
#566
0T
0?
0%
b0000000000110100 @
b0000000000110100 J
b0000000000110100 G
0D
b0000000000110100 #
02
0)
#571
1T
1?
1%
1D
12
b0000000000110100 (
1)
#576
0T
0?
0%
b0000000000110101 @
b0000000000110101 J
b0000000000110101 G
0D
b0000000000110101 #
02
0)
#581
1T
1?
1%
1D
12
b0000000000110101 (
1)
#586
0T
0?
0%
b0000000000110110 @
b0000000000110110 J
b0000000000110110 G
0D
b0000000000110110 #
02
0)
#591
1T
1?
1%
1D
12
b0000000000110110 (
1)
#596
0T
0?
0%
b0000000000110111 @
b0000000000110111 J
b0000000000110111 G
0D
b0000000000110111 #
02
0)
#601
1T
1?
1%
1D
12
b0000000000110111 (
1)
#606
0T
0?
0%
b0000000000111000 @
b0000000000111000 J
b0000000000111000 G
0D
b0000000000111000 #
02
0)
#611
1T
1?
1%
1D
12
b0000000000111000 (
1)
#616
0T
0?
0%
b0000000000111001 @
b0000000000111001 J
b0000000000111001 G
0D
b0000000000111001 #
02
0)
#621
1T
1?
1%
1D
12
b0000000000111001 (
1)
#626
0T
0?
0%
b0000000000111010 @
b0000000000111010 J
b0000000000111010 G
0D
b0000000000111010 #
02
0)
#631
1T
1?
1%
1D
12
b0000000000111010 (
1)
#636
0T
0?
0%
b0000000000111011 @
b0000000000111011 J
b0000000000111011 G
0D
b0000000000111011 #
02
0)
#641
1T
1?
1%
1D
12
b0000000000111011 (
1)
#646
0T
0?
0%
b0000000000111100 @
b0000000000111100 J
b0000000000111100 G
0D
b0000000000111100 #
02
0)
#651
1T
1?
1%
1D
12
b0000000000111100 (
1)
#656
0T
0?
0%
b0000000000111101 @
b0000000000111101 J
b0000000000111101 G
0D
b0000000000111101 #
02
0)
#661
1T
1?
1%
1D
12
b0000000000111101 (
1)
#666
0T
0?
0%
b0000000000111110 @
b0000000000111110 J
b0000000000111110 G
0D
b0000000000111110 #
02
0)
#671
1T
1?
1%
1D
12
b0000000000111110 (
1)
#676
0T
0?
0%
b0000000000111111 @
b0000000000111111 J
b0000000000111111 G
0D
b0000000000111111 #
02
0)
#681
1T
1?
1%
1D
12
b0000000000111111 (
1)
#686
0T
0?
0%
b0000000001000000 @
b0000000001000000 J
b0000000001000000 G
0D
b0000000001000000 #
02
0)
#691
1T
1?
1%
1D
12
b0000000001000000 (
1)
#696
0T
0?
0%
b0000000001000001 @
b0000000001000001 J
b0000000001000001 G
0D
b0000000001000001 #
02
0)
#701
1T
1?
1%
1D
12
b0000000001000001 (
1)
#706
0T
0?
0%
b0000000001000010 @
b0000000001000010 J
b0000000001000010 G
0D
b0000000001000010 #
02
0)
#711
1T
1?
1%
1D
12
b0000000001000010 (
1)
#716
0T
0?
0%
b0000000001000011 @
b0000000001000011 J
b0000000001000011 G
0D
b0000000001000011 #
02
0)
#721
1T
1?
1%
1D
12
b0000000001000011 (
1)
#726
0T
0?
0%
b0000000001000100 @
b0000000001000100 J
b0000000001000100 G
0D
b0000000001000100 #
02
0)
#731
1T
1?
1%
1D
12
b0000000001000100 (
1)
#736
0T
0?
0%
b0000000001000101 @
b0000000001000101 J
b0000000001000101 G
0D
b0000000001000101 #
02
0)
#741
1T
1?
1%
1D
12
b0000000001000101 (
1)
#746
0T
0?
0%
b0000000001000110 @
b0000000001000110 J
b0000000001000110 G
0D
b0000000001000110 #
02
0)
#751
1T
1?
1%
1D
12
b0000000001000110 (
1)
#756
0T
0?
0%
b0000000001000111 @
b0000000001000111 J
b0000000001000111 G
0D
b0000000001000111 #
02
0)
#761
1T
1?
1%
1D
12
b0000000001000111 (
1)
#766
0T
0?
0%
b0000000001001000 @
b0000000001001000 J
b0000000001001000 G
0D
b0000000001001000 #
02
0)
#771
1T
1?
1%
1D
12
b0000000001001000 (
1)
#776
0T
0?
0%
b0000000001001001 @
b0000000001001001 J
b0000000001001001 G
0D
b0000000001001001 #
02
0)
#781
1T
1?
1%
1D
12
b0000000001001001 (
1)
#786
0T
0?
0%
b0000000001001010 @
b0000000001001010 J
b0000000001001010 G
0D
b0000000001001010 #
02
0)
#791
1T
1?
1%
1D
12
b0000000001001010 (
1)
#796
0T
0?
0%
b0000000001001011 @
b0000000001001011 J
b0000000001001011 G
0D
b0000000001001011 #
02
0)
#801
1T
1?
1%
1D
12
b0000000001001011 (
1)
#806
0T
0?
0%
b0000000001001100 @
b0000000001001100 J
b0000000001001100 G
0D
b0000000001001100 #
02
0)
#811
1T
1?
1%
1D
12
b0000000001001100 (
1)
#816
0T
0?
0%
b0000000001001101 @
b0000000001001101 J
b0000000001001101 G
0D
b0000000001001101 #
02
0)
#821
1T
1?
1%
1D
12
b0000000001001101 (
1)
#826
0T
0?
0%
b0000000001001110 @
b0000000001001110 J
b0000000001001110 G
0D
b0000000001001110 #
02
0)
#831
1T
1?
1%
1D
12
b0000000001001110 (
1)
#836
0T
0?
0%
b0000000001001111 @
b0000000001001111 J
b0000000001001111 G
0D
b0000000001001111 #
02
0)
#841
1T
1?
1%
1D
12
b0000000001001111 (
1)
#846
0T
0?
0%
b0000000001010000 @
b0000000001010000 J
b0000000001010000 G
0D
b0000000001010000 #
02
0)
#851
1T
1?
1%
1D
12
b0000000001010000 (
1)
#856
0T
0?
0%
b0000000001010001 @
b0000000001010001 J
b0000000001010001 G
0D
b0000000001010001 #
02
0)
#861
1T
1?
1%
1D
12
b0000000001010001 (
1)
#866
0T
0?
0%
b0000000001010010 @
b0000000001010010 J
b0000000001010010 G
0D
b0000000001010010 #
02
0)
#871
1T
1?
1%
1D
12
b0000000001010010 (
1)
#876
0T
0?
0%
b0000000001010011 @
b0000000001010011 J
b0000000001010011 G
0D
b0000000001010011 #
02
0)
#881
1T
1?
1%
1D
12
b0000000001010011 (
1)
#886
0T
0?
0%
b0000000001010100 @
b0000000001010100 J
b0000000001010100 G
0D
b0000000001010100 #
02
0)
#891
1T
1?
1%
1D
12
b0000000001010100 (
1)
#896
0T
0?
0%
b0000000001010101 @
b0000000001010101 J
b0000000001010101 G
0D
b0000000001010101 #
02
0)
#901
1T
1?
1%
1D
12
b0000000001010101 (
1)
#906
0T
0?
0%
b0000000001010110 @
b0000000001010110 J
b0000000001010110 G
0D
b0000000001010110 #
02
0)
#911
1T
1?
1%
1D
12
b0000000001010110 (
1)
#916
0T
0?
0%
b0000000001010111 @
b0000000001010111 J
b0000000001010111 G
0D
b0000000001010111 #
02
0)
#921
1T
1?
1%
1D
12
b0000000001010111 (
1)
#926
0T
0?
0%
b0000000001011000 @
b0000000001011000 J
b0000000001011000 G
0D
b0000000001011000 #
02
0)
#931
1T
1?
1%
1D
12
b0000000001011000 (
1)
#936
0T
0?
0%
b0000000001011001 @
b0000000001011001 J
b0000000001011001 G
0D
b0000000001011001 #
02
0)
#941
1T
1?
1%
1D
12
b0000000001011001 (
1)
#946
0T
0?
0%
b0000000001011010 @
b0000000001011010 J
b0000000001011010 G
0D
b0000000001011010 #
02
0)
#951
1T
1?
1%
1D
12
b0000000001011010 (
1)
#956
0T
0?
0%
b0000000001011011 @
b0000000001011011 J
b0000000001011011 G
0D
b0000000001011011 #
02
0)
#961
1T
1?
1%
1D
12
b0000000001011011 (
1)
#966
0T
0?
0%
b0000000001011100 @
b0000000001011100 J
b0000000001011100 G
0D
b0000000001011100 #
02
0)
#971
1T
1?
1%
1D
12
b0000000001011100 (
1)
#976
0T
0?
0%
b0000000001011101 @
b0000000001011101 J
b0000000001011101 G
0D
b0000000001011101 #
02
0)
#981
1T
1?
1%
1D
12
b0000000001011101 (
1)
#986
0T
0?
0%
b0000000001011110 @
b0000000001011110 J
b0000000001011110 G
0D
b0000000001011110 #
02
0)
#991
1T
1?
1%
1D
12
b0000000001011110 (
1)
#996
0%
b0000000001011111 J
0D
b00000000000000000000000011111111 7
0)
0T
0?
b00000000000000000000000011111111 "
b0000000001011111 @
b00000000000000000000000011111111 8
b0000000001011111 G
b0000000001011111 #
02
b00000000000000000000000011111111 $
b00000000000000000000000011111111 O
b00000000000000000000000011111111 ;
#1001
1T
1?
1%
b00000000000000000000000011111111 R
1D
12
b0000000001011111 (
b00000000000000000000000011111111 >
1)
#1006
0%
b00000000000000000000000000000000 R
b0000000001100000 J
0D
b00000000000000000000000000000000 7
0)
0T
0?
b00000000000000000000000000000000 "
b0000000001100000 @
b00000000000000000000000000000000 8
b0000000001100000 G
b0000000001100000 #
02
b00000000000000000000000000000000 $
b00000000000000000000000000000000 O
b00000000000000000000000000000000 ;
#1011
1T
1?
1%
1D
12
b0000000001100000 (
b00000000000000000000000000000000 >
1)
#1016
0T
0?
0%
b0000000001100001 @
b0000000001100001 J
b0000000001100001 G
0D
b0000000001100001 #
02
0)
#1021
1T
1?
1%
1D
12
b0000000001100001 (
1)
#1026
0T
0?
0%
b0000000001100010 @
b0000000001100010 J
b0000000001100010 G
0D
b0000000001100010 #
02
0)
#1031
1T
1?
1%
1D
12
b0000000001100010 (
1)
#1036
0T
0?
0%
b0000000001100011 @
b0000000001100011 J
b0000000001100011 G
0D
b0000000001100011 #
02
0)
#1041
1T
1?
1%
1D
12
b0000000001100011 (
1)
#1046
0T
0?
0%
b0000000001100100 @
b0000000001100100 J
b0000000001100100 G
0D
b0000000001100100 #
02
0)
#1051
1T
1?
1%
1D
12
b0000000001100100 (
1)
#1056
0T
0?
0%
b0000000001100101 @
b0000000001100101 J
b0000000001100101 G
0D
b0000000001100101 #
02
0)
#1061
1T
1?
1%
1D
12
b0000000001100101 (
1)
#1066
0T
0?
0%
b0000000001100110 @
b0000000001100110 J
b0000000001100110 G
0D
b0000000001100110 #
02
0)
#1071
1T
1?
1%
1D
12
b0000000001100110 (
1)
#1076
0T
0?
0%
b0000000001100111 @
b0000000001100111 J
b0000000001100111 G
0D
b0000000001100111 #
02
0)
#1081
1T
1?
1%
1D
12
b0000000001100111 (
1)
#1086
0%
b0000000001101000 J
0D
b00000000000000000000000011111111 7
0)
0T
0?
b00000000000000000000000011111111 "
b0000000001101000 @
b00000000000000000000000011111111 8
b0000000001101000 G
b0000000001101000 #
02
b00000000000000000000000011111111 $
b00000000000000000000000011111111 O
b00000000000000000000000011111111 ;
#1091
1T
1?
1%
b00000000000000000000000011111111 R
1D
12
b0000000001101000 (
b00000000000000000000000011111111 >
1)
#1096
0%
b00000000000000000000000000000000 R
b0000000001101001 J
0D
b00000000000000000000000000000000 7
0)
0T
0?
b00000000000000000000000000000000 "
b0000000001101001 @
b00000000000000000000000000000000 8
b0000000001101001 G
b0000000001101001 #
02
b00000000000000000000000000000000 $
b00000000000000000000000000000000 O
b00000000000000000000000000000000 ;
#1101
1T
1?
1%
1D
12
b0000000001101001 (
b00000000000000000000000000000000 >
1)
#1106
0T
0?
0%
b0000000001101010 @
b0000000001101010 J
b0000000001101010 G
0D
b0000000001101010 #
02
0)
#1111
1T
1?
1%
1D
12
b0000000001101010 (
1)
#1116
0T
0?
0%
b0000000001101011 @
b0000000001101011 J
b0000000001101011 G
0D
b0000000001101011 #
02
0)
#1121
1T
1?
1%
1D
12
b0000000001101011 (
1)
#1126
0T
0?
0%
b0000000001101100 @
b0000000001101100 J
b0000000001101100 G
0D
b0000000001101100 #
02
0)
#1131
1T
1?
1%
1D
12
b0000000001101100 (
1)
#1136
0T
0?
0%
b0000000001101101 @
b0000000001101101 J
b0000000001101101 G
0D
b0000000001101101 #
02
0)
#1141
1T
1?
1%
1D
12
b0000000001101101 (
1)
#1146
0T
0?
0%
b0000000001101110 @
b0000000001101110 J
b0000000001101110 G
0D
b0000000001101110 #
02
0)
#1151
1T
1?
1%
1D
12
b0000000001101110 (
1)
#1156
0T
0?
0%
b0000000001101111 @
b0000000001101111 J
b0000000001101111 G
0D
b0000000001101111 #
02
0)
#1161
1T
1?
1%
1D
12
b0000000001101111 (
1)
#1166
0T
0?
0%
b0000000001110000 @
b0000000001110000 J
b0000000001110000 G
0D
b0000000001110000 #
02
0)
#1171
1T
1?
1%
1D
12
b0000000001110000 (
1)
#1176
0T
0?
0%
b0000000001110001 @
b0000000001110001 J
b0000000001110001 G
0D
b0000000001110001 #
02
0)
#1181
1T
1?
1%
1D
12
b0000000001110001 (
1)
#1186
0%
b0000000001110010 J
0D
b00000000000000000000000011111111 7
0)
0T
0?
b00000000000000000000000011111111 "
b0000000001110010 @
b00000000000000000000000011111111 8
b0000000001110010 G
b0000000001110010 #
02
b00000000000000000000000011111111 $
b00000000000000000000000011111111 O
b00000000000000000000000011111111 ;
#1191
1T
1?
1%
b00000000000000000000000011111111 R
1D
12
b0000000001110010 (
b00000000000000000000000011111111 >
1)
#1196
0T
0?
0%
b0000000001110011 @
b00000000000000000000000000000000 R
b0000000001110011 J
b0000000001110011 G
0D
b0000000001110011 #
02
0)
#1201
1T
1?
1%
b00000000000000000000000011111111 R
1D
12
b0000000001110011 (
1)
#1206
0T
0?
0%
b0000000001110100 @
b00000000000000000000000000000000 R
b0000000001110100 J
b0000000001110100 G
0D
b0000000001110100 #
02
0)
#1211
1T
1?
1%
b00000000000000000000000011111111 R
1D
12
b0000000001110100 (
1)
#1216
0%
b00000000000000000000000000000000 R
b0000000001110101 J
0D
b00000000000000000000000000000000 7
0)
0T
0?
b00000000000000000000000000000000 "
b0000000001110101 @
b00000000000000000000000000000000 8
b0000000001110101 G
b0000000001110101 #
02
b00000000000000000000000000000000 $
b00000000000000000000000000000000 O
b00000000000000000000000000000000 ;
#1221
1T
1?
1%
1D
12
b0000000001110101 (
b00000000000000000000000000000000 >
1)
#1226
0T
0?
0%
b0000000001110110 @
b0000000001110110 J
b0000000001110110 G
0D
b0000000001110110 #
02
0)
#1231
1T
1?
1%
1D
12
b0000000001110110 (
1)
#1236
0T
0?
0%
b0000000001110111 @
b0000000001110111 J
b0000000001110111 G
0D
b0000000001110111 #
02
0)
#1241
1T
1?
1%
1D
12
b0000000001110111 (
1)
#1246
0T
0?
0%
b0000000001111000 @
b0000000001111000 J
b0000000001111000 G
0D
b0000000001111000 #
02
0)
#1251
1T
1?
1%
1D
12
b0000000001111000 (
1)
#1256
0T
0?
0%
b0000000001111001 @
b0000000001111001 J
b0000000001111001 G
0D
b0000000001111001 #
02
0)
#1261
1T
1?
1%
1D
12
b0000000001111001 (
1)
#1266
0T
0?
0%
b0000000001111010 @
b0000000001111010 J
b0000000001111010 G
0D
b0000000001111010 #
02
0)
#1271
1T
1?
1%
1D
12
b0000000001111010 (
1)
#1276
0%
b0000000001111011 J
0D
b00000000000000000000000011111111 7
0)
0T
0?
b00000000000000000000000011111111 "
b0000000001111011 @
b00000000000000000000000011111111 8
b0000000001111011 G
b0000000001111011 #
02
b00000000000000000000000011111111 $
b00000000000000000000000011111111 O
b00000000000000000000000011111111 ;
#1281
1T
1?
1%
b00000000000000000000000011111111 R
1D
12
b0000000001111011 (
b00000000000000000000000011111111 >
1)
#1286
0T
0?
0%
b0000000001111100 @
b00000000000000000000000000000000 R
b0000000001111100 J
b0000000001111100 G
0D
b0000000001111100 #
02
0)
#1291
1T
1?
1%
b00000000000000000000000011111111 R
1D
12
b0000000001111100 (
1)
#1296
0T
0?
0%
b0000000001111101 @
b00000000000000000000000000000000 R
b0000000001111101 J
b0000000001111101 G
0D
b0000000001111101 #
02
0)
#1301
1T
1?
1%
b00000000000000000000000011111111 R
1D
12
b0000000001111101 (
1)
#1306
0%
b00000000000000000000000000000000 R
b0000000001111110 J
0D
b00000000000000000000000000000000 7
0)
0T
0?
b00000000000000000000000000000000 "
b0000000001111110 @
b00000000000000000000000000000000 8
b0000000001111110 G
b0000000001111110 #
02
b00000000000000000000000000000000 $
b00000000000000000000000000000000 O
b00000000000000000000000000000000 ;
#1311
1T
1?
1%
1D
12
b0000000001111110 (
b00000000000000000000000000000000 >
1)
#1316
0T
0?
0%
b0000000001111111 @
b0000000001111111 J
b0000000001111111 G
0D
b0000000001111111 #
02
0)
#1321
1T
1?
1%
1D
12
b0000000001111111 (
1)
#1326
0T
0?
0%
b0000000010000000 @
b0000000010000000 J
b0000000010000000 G
0D
b0000000010000000 #
02
0)
#1331
1T
1?
1%
1D
12
b0000000010000000 (
1)
#1336
0T
0?
0%
b0000000010000001 @
b0000000010000001 J
b0000000010000001 G
0D
b0000000010000001 #
02
0)
#1341
1T
1?
1%
1D
12
b0000000010000001 (
1)
#1346
0T
0?
0%
b0000000010000010 @
b0000000010000010 J
b0000000010000010 G
0D
b0000000010000010 #
02
0)
#1351
1T
1?
1%
1D
12
b0000000010000010 (
1)
#1356
0T
0?
0%
b0000000010000011 @
b0000000010000011 J
b0000000010000011 G
0D
b0000000010000011 #
02
0)
#1361
1T
1?
1%
1D
12
b0000000010000011 (
1)
#1366
0T
0?
0%
b0000000010000100 @
b0000000010000100 J
b0000000010000100 G
0D
b0000000010000100 #
02
0)
#1371
1T
1?
1%
1D
12
b0000000010000100 (
1)
